2016.11.15 20:42 B C:\Users\User\Desktop\KRC_Upload\KRChoksey\KR_Choksey\Content\images\slides\camera_skins.png --> 172.16.26.6 /KRChoksey_Beta/Content/images/slides camera_skins.png
2016.11.15 20:42 B C:\Users\User\Desktop\KRC_Upload\KRChoksey\KR_Choksey\Content\images\slides\3rd-banner-bg.jpg --> 172.16.26.6 /KRChoksey_Beta/Content/images/slides 3rd-banner-bg.jpg
2016.11.15 20:42 B C:\Users\User\Desktop\KRC_Upload\KRChoksey\KR_Choksey\Content\images\slides\2nd-banner-bg.jpg --> 172.16.26.6 /KRChoksey_Beta/Content/images/slides 2nd-banner-bg.jpg
2016.11.15 20:42 B C:\Users\User\Desktop\KRC_Upload\KRChoksey\KR_Choksey\Content\images\slides\1st-baner-bg.jpg --> 172.16.26.6 /KRChoksey_Beta/Content/images/slides 1st-baner-bg.jpg
2016.11.19 20:22 B C:\Users\User\Desktop\sourav\KRChoksey\KR_Choksey\Content\images\slides\1st-baner-bg.jpg --> 172.16.26.6 /KRChoksey_Beta/Content/images/slides 1st-baner-bg.jpg
2016.11.19 20:22 B C:\Users\User\Desktop\sourav\KRChoksey\KR_Choksey\Content\images\slides\2nd-banner-bg.jpg --> 172.16.26.6 /KRChoksey_Beta/Content/images/slides 2nd-banner-bg.jpg
2016.11.19 20:22 B C:\Users\User\Desktop\sourav\KRChoksey\KR_Choksey\Content\images\slides\3rd-banner-bg.jpg --> 172.16.26.6 /KRChoksey_Beta/Content/images/slides 3rd-banner-bg.jpg
2016.11.19 20:22 B C:\Users\User\Desktop\sourav\KRChoksey\KR_Choksey\Content\images\slides\camera_skins.png --> 172.16.26.6 /KRChoksey_Beta/Content/images/slides camera_skins.png
2016.11.19 20:22 B C:\Users\User\Desktop\sourav\KRChoksey\KR_Choksey\Content\images\slides\WS_FTP.LOG --> 172.16.26.6 /KRChoksey_Beta/Content/images/slides WS_FTP.LOG
2016.11.22 13:30 B C:\Users\User\Desktop\sourav\KRChoksey\KR_Choksey\Content\images\slides\1st-baner-bg.jpg --> 172.16.26.6 /KRChoksey_Beta/Content/images/slides 1st-baner-bg.jpg
2016.11.22 13:30 B C:\Users\User\Desktop\sourav\KRChoksey\KR_Choksey\Content\images\slides\2nd-banner-bg.jpg --> 172.16.26.6 /KRChoksey_Beta/Content/images/slides 2nd-banner-bg.jpg
2016.11.22 13:30 B C:\Users\User\Desktop\sourav\KRChoksey\KR_Choksey\Content\images\slides\3rd-banner-bg.jpg --> 172.16.26.6 /KRChoksey_Beta/Content/images/slides 3rd-banner-bg.jpg
2016.11.22 13:30 B C:\Users\User\Desktop\sourav\KRChoksey\KR_Choksey\Content\images\slides\camera_skins.png --> 172.16.26.6 /KRChoksey_Beta/Content/images/slides camera_skins.png
2016.11.22 13:30 B C:\Users\User\Desktop\sourav\KRChoksey\KR_Choksey\Content\images\slides\WS_FTP.LOG --> 172.16.26.6 /KRChoksey_Beta/Content/images/slides WS_FTP.LOG
2016.11.22 13:46 B C:\Users\User\Desktop\sourav\KRChoksey\KR_Choksey\Content\images\slides\1st-baner-bg.jpg --> 172.16.26.6 /KRChoksey_Beta/Content/images/slides 1st-baner-bg.jpg
2016.11.22 13:46 B C:\Users\User\Desktop\sourav\KRChoksey\KR_Choksey\Content\images\slides\2nd-banner-bg.jpg --> 172.16.26.6 /KRChoksey_Beta/Content/images/slides 2nd-banner-bg.jpg
2016.11.22 13:46 B C:\Users\User\Desktop\sourav\KRChoksey\KR_Choksey\Content\images\slides\3rd-banner-bg.jpg --> 172.16.26.6 /KRChoksey_Beta/Content/images/slides 3rd-banner-bg.jpg
2016.11.22 13:46 B C:\Users\User\Desktop\sourav\KRChoksey\KR_Choksey\Content\images\slides\camera_skins.png --> 172.16.26.6 /KRChoksey_Beta/Content/images/slides camera_skins.png
2016.12.01 19:32 B C:\Users\User\Desktop\KRChoksey1DEC_2016\KR_Choksey\Content\images\slides\1st-baner-bg.jpg --> 172.16.26.6 /KRChoksey_Beta/Content/images/slides 1st-baner-bg.jpg
