2016.11.22 13:00 B C:\Users\User\Desktop\New folder\Risk Policy\Branch\VERSION  1.1 KRC Risk Norms_KRC Branch.pdf <-- KRC /WB_Reports/Risk Policy/Branch VERSION  1.1 KRC Risk Norms_KRC Branch.pdf
2016.11.22 13:00 B C:\Users\User\Desktop\New folder\Risk Policy\Branch\Version 1.0 KRC Risk Norms_KRC Branch.pdf <-- KRC /WB_Reports/Risk Policy/Branch Version 1.0 KRC Risk Norms_KRC Branch.pdf
2016.11.22 13:37 B C:\Users\User\Desktop\sourav\KRChoksey\KR_Choksey\Content\WB_Reports\Risk Policy\Branch\VERSION  1.1 KRC Risk Norms_KRC Branch.pdf --> 172.16.26.6 /KRChoksey_Beta/Content/WB_Reports/Risk Policy/Branch VERSION  1.1 KRC Risk Norms_KRC Branch.pdf
2016.11.22 13:37 B C:\Users\User\Desktop\sourav\KRChoksey\KR_Choksey\Content\WB_Reports\Risk Policy\Branch\Version 1.0 KRC Risk Norms_KRC Branch.pdf --> 172.16.26.6 /KRChoksey_Beta/Content/WB_Reports/Risk Policy/Branch Version 1.0 KRC Risk Norms_KRC Branch.pdf
